\relax 
\citation{ieee:7}
\citation{ieee:7}
\citation{ieee:7}
\citation{andro}
\@writefile{toc}{\contentsline {chapter}{\numberline {2}Background}{9}\protected@file@percent }
\@writefile{lof}{\addvspace {10\p@ }}
\@writefile{lot}{\addvspace {10\p@ }}
\@writefile{toc}{\contentsline {section}{\numberline {2.1}Industry Standard}{9}\protected@file@percent }
\@writefile{lof}{\contentsline {figure}{\numberline {2.1}{\ignorespaces "Trade-off between reconfigurability and development time for FPGA, ASIC, DSP, GPP, and hybrid GPP/FPGA-centric SDR architectures" taken from \cite  {ieee:7}}}{10}\protected@file@percent }
\newlabel{fig:devComp}{{2.1}{10}}
\@writefile{toc}{\contentsline {section}{\numberline {2.2}Hardware vs Software}{11}\protected@file@percent }
\citation{ettus:uhd,ettus:ubx}
\citation{ettus:b205}
\citation{ettus:uhd,ettus:uhddoc}
\@writefile{toc}{\contentsline {section}{\numberline {2.3}SDR Development}{12}\protected@file@percent }
\citation{gnu:fm}
\@writefile{toc}{\contentsline {section}{\numberline {2.4}Waveform Basics}{13}\protected@file@percent }
\@setckpt{background}{
\setcounter{page}{16}
\setcounter{equation}{0}
\setcounter{enumi}{0}
\setcounter{enumii}{0}
\setcounter{enumiii}{0}
\setcounter{enumiv}{0}
\setcounter{footnote}{0}
\setcounter{mpfootnote}{0}
\setcounter{part}{0}
\setcounter{chapter}{2}
\setcounter{section}{4}
\setcounter{subsection}{0}
\setcounter{subsubsection}{0}
\setcounter{paragraph}{0}
\setcounter{subparagraph}{0}
\setcounter{figure}{1}
\setcounter{table}{0}
\setcounter{parentequation}{0}
\setcounter{lstnumber}{1}
\setcounter{lstlisting}{0}
}
