\relax 
\@writefile{toc}{\contentsline {chapter}{\numberline {A}Code Snippets}{72}\protected@file@percent }
\@writefile{lof}{\addvspace {10\p@ }}
\@writefile{lot}{\addvspace {10\p@ }}
\@writefile{toc}{\contentsline {section}{\numberline {A.1}Main}{72}\protected@file@percent }
\@writefile{toc}{\contentsline {section}{\numberline {A.2}PHY Parameters}{73}\protected@file@percent }
\@writefile{toc}{\contentsline {section}{\numberline {A.3}Asynchronous Buffer Manager}{75}\protected@file@percent }
\@writefile{toc}{\contentsline {subsection}{\numberline {A.3.1}Pick-up Manager}{75}\protected@file@percent }
\@writefile{toc}{\contentsline {subsection}{\numberline {A.3.2}Drop-off Manager}{79}\protected@file@percent }
\@writefile{toc}{\contentsline {subsection}{\numberline {A.3.3}Pick-up Manager Serial Refactor}{84}\protected@file@percent }
\@writefile{toc}{\contentsline {subsection}{\numberline {A.3.4}Drop-off Manager Serial Refactor}{88}\protected@file@percent }
\@writefile{toc}{\contentsline {subsection}{\numberline {A.3.5}Performance Comparison Test}{93}\protected@file@percent }
\@writefile{toc}{\contentsline {subsection}{\numberline {A.3.6}Unit Test for Order Preservation}{98}\protected@file@percent }
\@writefile{toc}{\contentsline {section}{\numberline {A.4}CP-OFDM Workers}{103}\protected@file@percent }
\@writefile{toc}{\contentsline {subsection}{\numberline {A.4.1}TX PHY Worker}{103}\protected@file@percent }
\@writefile{toc}{\contentsline {subsection}{\numberline {A.4.2}RX PHY Worker}{106}\protected@file@percent }
\@writefile{toc}{\contentsline {section}{\numberline {A.5}CP-OFDM Frame Detection}{109}\protected@file@percent }
\@setckpt{code}{
\setcounter{page}{112}
\setcounter{equation}{0}
\setcounter{enumi}{0}
\setcounter{enumii}{0}
\setcounter{enumiii}{0}
\setcounter{enumiv}{32}
\setcounter{footnote}{0}
\setcounter{mpfootnote}{0}
\setcounter{part}{0}
\setcounter{chapter}{1}
\setcounter{section}{5}
\setcounter{subsection}{0}
\setcounter{subsubsection}{0}
\setcounter{paragraph}{0}
\setcounter{subparagraph}{0}
\setcounter{figure}{0}
\setcounter{table}{0}
\setcounter{parentequation}{0}
\setcounter{lstnumber}{77}
\setcounter{lstlisting}{0}
}
