\relax 
\@writefile{toc}{\contentsline {chapter}{\numberline {6}Conclusions}{63}\protected@file@percent }
\@writefile{lof}{\addvspace {10\p@ }}
\@writefile{lot}{\addvspace {10\p@ }}
\@writefile{toc}{\contentsline {section}{\numberline {6.1}Accomplishments}{63}\protected@file@percent }
\@writefile{toc}{\contentsline {section}{\numberline {6.2}Shortcomings}{64}\protected@file@percent }
\citation{ieee:3}
\@writefile{toc}{\contentsline {section}{\numberline {6.3}Future Work}{66}\protected@file@percent }
\@setckpt{conclusions}{
\setcounter{page}{68}
\setcounter{equation}{0}
\setcounter{enumi}{0}
\setcounter{enumii}{0}
\setcounter{enumiii}{0}
\setcounter{enumiv}{0}
\setcounter{footnote}{0}
\setcounter{mpfootnote}{0}
\setcounter{part}{0}
\setcounter{chapter}{6}
\setcounter{section}{3}
\setcounter{subsection}{0}
\setcounter{subsubsection}{0}
\setcounter{paragraph}{0}
\setcounter{subparagraph}{0}
\setcounter{figure}{0}
\setcounter{table}{0}
\setcounter{parentequation}{0}
\setcounter{lstnumber}{1}
\setcounter{lstlisting}{0}
}
