\relax 
\@writefile{toc}{\contentsline {chapter}{\numberline {4}Software Development}{27}\protected@file@percent }
\@writefile{lof}{\addvspace {10\p@ }}
\@writefile{lot}{\addvspace {10\p@ }}
\@writefile{toc}{\contentsline {section}{\numberline {4.1}Contributions}{27}\protected@file@percent }
\citation{mpi:doc}
\@writefile{toc}{\contentsline {section}{\numberline {4.2}Asynchronous Buffer Manager}{28}\protected@file@percent }
\@writefile{toc}{\contentsline {subsection}{\numberline {4.2.1}Introduction}{28}\protected@file@percent }
\@writefile{lof}{\contentsline {figure}{\numberline {4.1}{\ignorespaces Samsung Galaxy S22 Ultra Chip Set}}{31}\protected@file@percent }
\newlabel{fig:s22Spec}{{4.1}{31}}
\@writefile{toc}{\contentsline {subsection}{\numberline {4.2.2}Implementation}{31}\protected@file@percent }
\@writefile{lof}{\contentsline {figure}{\numberline {4.2}{\ignorespaces Buffer State Diagram}}{33}\protected@file@percent }
\newlabel{fig:bufferStates}{{4.2}{33}}
\@writefile{lof}{\contentsline {figure}{\numberline {4.3}{\ignorespaces Worker Thread Distribution Diagram}}{34}\protected@file@percent }
\newlabel{fig:bufferPassing}{{4.3}{34}}
\@writefile{toc}{\contentsline {section}{\numberline {4.3}CP-OFDM Workers}{35}\protected@file@percent }
\@writefile{toc}{\contentsline {subsection}{\numberline {4.3.1}Setup}{35}\protected@file@percent }
\@writefile{lof}{\contentsline {figure}{\numberline {4.4}{\ignorespaces Worker Memory Distribution Diagram}}{36}\protected@file@percent }
\newlabel{fig:workerMemory}{{4.4}{36}}
\@writefile{toc}{\contentsline {subsection}{\numberline {4.3.2}TX Worker}{36}\protected@file@percent }
\@writefile{lof}{\contentsline {figure}{\numberline {4.5}{\ignorespaces TX PHY Worker Block Diagram}}{38}\protected@file@percent }
\newlabel{fig:txWorker}{{4.5}{38}}
\@writefile{toc}{\contentsline {subsection}{\numberline {4.3.3}RX Worker}{38}\protected@file@percent }
\@writefile{lof}{\contentsline {figure}{\numberline {4.6}{\ignorespaces TX PHY Worker Block Diagram}}{39}\protected@file@percent }
\newlabel{fig:rxWorker}{{4.6}{39}}
\citation{wiki:auto}
\@writefile{toc}{\contentsline {subsection}{\numberline {4.3.4}Other Considerations}{40}\protected@file@percent }
\@writefile{toc}{\contentsline {section}{\numberline {4.4}CP-OFDM Frame Detection}{40}\protected@file@percent }
\@writefile{lof}{\contentsline {figure}{\numberline {4.7}{\ignorespaces Auto Correlation Optimization}}{42}\protected@file@percent }
\newlabel{fig:corrOpt}{{4.7}{42}}
\@writefile{toc}{\contentsline {section}{\numberline {4.5}OFDM Parameters}{43}\protected@file@percent }
\@writefile{toc}{\contentsline {section}{\numberline {4.6}Other Implementations}{46}\protected@file@percent }
\@setckpt{development}{
\setcounter{page}{48}
\setcounter{equation}{0}
\setcounter{enumi}{0}
\setcounter{enumii}{0}
\setcounter{enumiii}{0}
\setcounter{enumiv}{0}
\setcounter{footnote}{0}
\setcounter{mpfootnote}{0}
\setcounter{part}{0}
\setcounter{chapter}{4}
\setcounter{section}{6}
\setcounter{subsection}{0}
\setcounter{subsubsection}{0}
\setcounter{paragraph}{0}
\setcounter{subparagraph}{0}
\setcounter{figure}{7}
\setcounter{table}{0}
\setcounter{parentequation}{0}
\setcounter{lstnumber}{1}
\setcounter{lstlisting}{0}
}
