\relax 
\@input{declarationpage.aux}
\@input{abstractpage.aux}
\citation{ieee:7}
\citation{wifiImage}
\@input{introduction.aux}
\@input{background.aux}
\@input{research.aux}
\@input{development.aux}
\@input{results.aux}
\@input{conclusions.aux}
\bibstyle{plain}
\citation{*}
\bibdata{references}
\bibcite{5gtoolbox}{1}
\bibcite{stn:5g}{2}
\bibcite{ns1:main}{3}
\bibcite{ieee:3}{4}
\bibcite{stn:ofdm}{5}
\bibcite{fftTut}{6}
\bibcite{gnu:ofdmTest2}{7}
\bibcite{phyRes}{8}
\bibcite{gnu:ofdmTest}{9}
\@writefile{toc}{\contentsline {chapter}{Bibliography}{68}\protected@file@percent }
\bibcite{fftw:doc}{10}
\bibcite{fftw:thread}{11}
\bibcite{gnu:main}{12}
\bibcite{ieee:5}{13}
\bibcite{ieee:1}{14}
\bibcite{ieee:6}{15}
\bibcite{ieee:4}{16}
\bibcite{wifiImage}{17}
\bibcite{mpi:doc}{18}
\bibcite{openwifi}{19}
\bibcite{gnu:fm}{20}
\bibcite{ieee:2}{21}
\bibcite{ns1:doc}{22}
\bibcite{ieee:7}{23}
\bibcite{ettus:uhd}{24}
\bibcite{ettus:ubx}{25}
\bibcite{ettus:b205}{26}
\bibcite{ettus:uhddoc}{27}
\bibcite{ettus:x300}{28}
\bibcite{andro}{29}
\bibcite{wiki:auto}{30}
\bibcite{wiki:guard}{31}
\bibcite{wiki:ofdm}{32}
\@input{code.aux}
