PWD /home/tom/ofdm/paper
INPUT /etc/texmf/web2c/texmf.cnf
INPUT /usr/share/texmf/web2c/texmf.cnf
INPUT /usr/share/texlive/texmf-dist/web2c/texmf.cnf
INPUT /var/lib/texmf/web2c/pdftex/pdflatex.fmt
INPUT /home/tom/ofdm/paper/main.tex
OUTPUT /home/tom/ofdm/paper/main.log
INPUT /usr/share/texlive/texmf-dist/tex/latex/base/report.cls
INPUT /usr/share/texlive/texmf-dist/tex/latex/base/report.cls
INPUT /usr/share/texlive/texmf-dist/tex/latex/base/size12.clo
INPUT /usr/share/texlive/texmf-dist/tex/latex/base/size12.clo
INPUT /usr/share/texlive/texmf-dist/fonts/map/fontname/texfonts.map
INPUT /usr/share/texlive/texmf-dist/fonts/tfm/public/cm/cmr12.tfm
INPUT /usr/share/texlive/texmf-dist/tex/latex/base/inputenc.sty
INPUT /usr/share/texlive/texmf-dist/tex/latex/base/inputenc.sty
INPUT /usr/share/texlive/texmf-dist/tex/latex/graphics/graphicx.sty
INPUT /usr/share/texlive/texmf-dist/tex/latex/graphics/graphicx.sty
INPUT /usr/share/texlive/texmf-dist/tex/latex/graphics/keyval.sty
INPUT /usr/share/texlive/texmf-dist/tex/latex/graphics/keyval.sty
INPUT /usr/share/texlive/texmf-dist/tex/latex/graphics/graphics.sty
INPUT /usr/share/texlive/texmf-dist/tex/latex/graphics/graphics.sty
INPUT /usr/share/texlive/texmf-dist/tex/latex/graphics/trig.sty
INPUT /usr/share/texlive/texmf-dist/tex/latex/graphics/trig.sty
INPUT /usr/share/texlive/texmf-dist/tex/latex/graphics-cfg/graphics.cfg
INPUT /usr/share/texlive/texmf-dist/tex/latex/graphics-cfg/graphics.cfg
INPUT /usr/share/texlive/texmf-dist/tex/latex/graphics-def/pdftex.def
INPUT /usr/share/texlive/texmf-dist/tex/latex/graphics-def/pdftex.def
INPUT /usr/share/texlive/texmf-dist/tex/latex/amsmath/amsmath.sty
INPUT /usr/share/texlive/texmf-dist/tex/latex/amsmath/amsmath.sty
INPUT /usr/share/texlive/texmf-dist/tex/latex/amsmath/amstext.sty
INPUT /usr/share/texlive/texmf-dist/tex/latex/amsmath/amstext.sty
INPUT /usr/share/texlive/texmf-dist/tex/latex/amsmath/amsgen.sty
INPUT /usr/share/texlive/texmf-dist/tex/latex/amsmath/amsgen.sty
INPUT /usr/share/texlive/texmf-dist/tex/latex/amsmath/amsbsy.sty
INPUT /usr/share/texlive/texmf-dist/tex/latex/amsmath/amsbsy.sty
INPUT /usr/share/texlive/texmf-dist/tex/latex/amsmath/amsopn.sty
INPUT /usr/share/texlive/texmf-dist/tex/latex/amsmath/amsopn.sty
INPUT /usr/share/texlive/texmf-dist/tex/latex/cite/cite.sty
INPUT /usr/share/texlive/texmf-dist/tex/latex/cite/cite.sty
INPUT /usr/share/texlive/texmf-dist/tex/latex/url/url.sty
INPUT /usr/share/texlive/texmf-dist/tex/latex/url/url.sty
INPUT /usr/share/texlive/texmf-dist/tex/latex/listings/listings.sty
INPUT /usr/share/texlive/texmf-dist/tex/latex/listings/listings.sty
INPUT /usr/share/texlive/texmf-dist/tex/latex/listings/lstmisc.sty
INPUT /usr/share/texlive/texmf-dist/tex/latex/listings/lstmisc.sty
INPUT /usr/share/texlive/texmf-dist/tex/latex/listings/listings.cfg
INPUT /usr/share/texlive/texmf-dist/tex/latex/listings/listings.cfg
INPUT /usr/share/texlive/texmf-dist/tex/latex/graphics/color.sty
INPUT /usr/share/texlive/texmf-dist/tex/latex/graphics/color.sty
INPUT /usr/share/texlive/texmf-dist/tex/latex/graphics-cfg/color.cfg
INPUT /usr/share/texlive/texmf-dist/tex/latex/graphics-cfg/color.cfg
INPUT /usr/share/texlive/texmf-dist/tex/latex/listings/lstlang1.sty
INPUT /usr/share/texlive/texmf-dist/tex/latex/listings/lstlang1.sty
INPUT /usr/share/texlive/texmf-dist/tex/latex/listings/lstlang1.sty
INPUT /usr/share/texlive/texmf-dist/tex/latex/listings/lstlang1.sty
INPUT /usr/share/texlive/texmf-dist/tex/latex/listings/lstmisc.sty
INPUT /usr/share/texlive/texmf-dist/tex/latex/listings/lstmisc.sty
INPUT /usr/share/texlive/texmf-dist/tex/latex/l3backend/l3backend-pdfmode.def
INPUT /usr/share/texlive/texmf-dist/tex/latex/l3backend/l3backend-pdfmode.def
INPUT /home/tom/ofdm/paper/main.aux
INPUT /home/tom/ofdm/paper/main.aux
INPUT /home/tom/ofdm/paper/declarationpage.aux
INPUT /home/tom/ofdm/paper/declarationpage.aux
INPUT /home/tom/ofdm/paper/abstractpage.aux
INPUT /home/tom/ofdm/paper/abstractpage.aux
INPUT /home/tom/ofdm/paper/introduction.aux
INPUT /home/tom/ofdm/paper/introduction.aux
INPUT /home/tom/ofdm/paper/background.aux
INPUT /home/tom/ofdm/paper/background.aux
INPUT /home/tom/ofdm/paper/research.aux
INPUT /home/tom/ofdm/paper/research.aux
INPUT /home/tom/ofdm/paper/development.aux
INPUT /home/tom/ofdm/paper/development.aux
INPUT /home/tom/ofdm/paper/results.aux
INPUT /home/tom/ofdm/paper/results.aux
INPUT /home/tom/ofdm/paper/conclusions.aux
INPUT /home/tom/ofdm/paper/conclusions.aux
INPUT /home/tom/ofdm/paper/code.aux
INPUT /home/tom/ofdm/paper/code.aux
OUTPUT /home/tom/ofdm/paper/main.aux
INPUT /usr/share/texlive/texmf-dist/tex/context/base/mkii/supp-pdf.mkii
INPUT /usr/share/texlive/texmf-dist/tex/context/base/mkii/supp-pdf.mkii
INPUT /usr/share/texlive/texmf-dist/tex/latex/epstopdf-pkg/epstopdf-base.sty
INPUT /usr/share/texlive/texmf-dist/tex/latex/epstopdf-pkg/epstopdf-base.sty
INPUT /usr/share/texlive/texmf-dist/tex/latex/latexconfig/epstopdf-sys.cfg
INPUT /usr/share/texlive/texmf-dist/tex/latex/latexconfig/epstopdf-sys.cfg
INPUT /usr/share/texlive/texmf-dist/fonts/tfm/public/cm/cmr17.tfm
INPUT /usr/share/texlive/texmf-dist/fonts/tfm/public/cm/cmbx12.tfm
INPUT /usr/share/texlive/texmf-dist/fonts/tfm/public/cm/cmr12.tfm
INPUT /usr/share/texlive/texmf-dist/fonts/tfm/public/cm/cmbx12.tfm
INPUT /home/tom/ofdm/paper/pics/polylogo.png
INPUT /home/tom/ofdm/paper/pics/polylogo.png
OUTPUT /home/tom/ofdm/paper/main.pdf
INPUT /home/tom/ofdm/paper/pics/polylogo.png
INPUT /var/lib/texmf/fonts/map/pdftex/updmap/pdftex.map
OUTPUT /home/tom/ofdm/paper/declarationpage.aux
INPUT /home/tom/ofdm/paper/declarationpage.tex
INPUT /home/tom/ofdm/paper/declarationpage.tex
INPUT /usr/share/texlive/texmf-dist/fonts/tfm/public/cm/cmbx12.tfm
INPUT /home/tom/ofdm/paper/pics/polylogo.png
INPUT /home/tom/ofdm/paper/pics/polylogo.png
INPUT /usr/share/texlive/texmf-dist/fonts/tfm/public/cm/cmr8.tfm
INPUT /usr/share/texlive/texmf-dist/fonts/tfm/public/cm/cmr6.tfm
INPUT /usr/share/texlive/texmf-dist/fonts/tfm/public/cm/cmmi12.tfm
INPUT /usr/share/texlive/texmf-dist/fonts/tfm/public/cm/cmmi8.tfm
INPUT /usr/share/texlive/texmf-dist/fonts/tfm/public/cm/cmmi6.tfm
INPUT /usr/share/texlive/texmf-dist/fonts/tfm/public/cm/cmsy10.tfm
INPUT /usr/share/texlive/texmf-dist/fonts/tfm/public/cm/cmsy8.tfm
INPUT /usr/share/texlive/texmf-dist/fonts/tfm/public/cm/cmsy6.tfm
INPUT /usr/share/texlive/texmf-dist/fonts/tfm/public/cm/cmex10.tfm
INPUT /usr/share/texlive/texmf-dist/fonts/tfm/public/amsfonts/cmextra/cmex8.tfm
INPUT /usr/share/texlive/texmf-dist/fonts/tfm/public/amsfonts/cmextra/cmex7.tfm
OUTPUT /home/tom/ofdm/paper/abstractpage.aux
INPUT /home/tom/ofdm/paper/abstractpage.tex
INPUT /home/tom/ofdm/paper/abstractpage.tex
INPUT /usr/share/texlive/texmf-dist/fonts/tfm/public/cm/cmr17.tfm
INPUT /usr/share/texlive/texmf-dist/fonts/tfm/public/cm/cmbx12.tfm
INPUT /home/tom/ofdm/paper/main.toc
INPUT /home/tom/ofdm/paper/main.toc
OUTPUT /home/tom/ofdm/paper/main.toc
INPUT /home/tom/ofdm/paper/main.lof
INPUT /home/tom/ofdm/paper/main.lof
OUTPUT /home/tom/ofdm/paper/main.lof
OUTPUT /home/tom/ofdm/paper/introduction.aux
INPUT /home/tom/ofdm/paper/introduction.tex
INPUT /home/tom/ofdm/paper/introduction.tex
OUTPUT /home/tom/ofdm/paper/background.aux
INPUT /home/tom/ofdm/paper/background.tex
INPUT /home/tom/ofdm/paper/background.tex
INPUT /usr/share/texlive/texmf-dist/fonts/tfm/public/cm/cmr17.tfm
INPUT /usr/share/texlive/texmf-dist/fonts/tfm/public/cm/cmbx12.tfm
INPUT /home/tom/ofdm/paper/pics/compGraph.png
INPUT /home/tom/ofdm/paper/pics/compGraph.png
INPUT /home/tom/ofdm/paper/pics/compGraph.png
INPUT /usr/share/texlive/texmf-dist/fonts/tfm/jknappen/ec/tcrm1200.tfm
OUTPUT /home/tom/ofdm/paper/research.aux
INPUT /home/tom/ofdm/paper/research.tex
INPUT /home/tom/ofdm/paper/research.tex
INPUT /home/tom/ofdm/paper/pics/wifisubcarriers.png
INPUT /home/tom/ofdm/paper/pics/wifisubcarriers.png
INPUT /home/tom/ofdm/paper/pics/wifisubcarriers.png
INPUT /home/tom/ofdm/paper/pics/qpsk.png
INPUT /home/tom/ofdm/paper/pics/qpsk.png
INPUT /home/tom/ofdm/paper/pics/qpsk.png
INPUT /home/tom/ofdm/paper/pics/cpinsertion.png
INPUT /home/tom/ofdm/paper/pics/cpinsertion.png
INPUT /home/tom/ofdm/paper/pics/cpinsertion.png
OUTPUT /home/tom/ofdm/paper/development.aux
INPUT /home/tom/ofdm/paper/development.tex
INPUT /home/tom/ofdm/paper/development.tex
INPUT /home/tom/ofdm/paper/pics/s22spec.png
INPUT /home/tom/ofdm/paper/pics/s22spec.png
INPUT /home/tom/ofdm/paper/pics/s22spec.png
INPUT /home/tom/ofdm/paper/pics/bufferStates.png
INPUT /home/tom/ofdm/paper/pics/bufferStates.png
INPUT /home/tom/ofdm/paper/pics/bufferStates.png
INPUT /home/tom/ofdm/paper/pics/bufferpassing.png
INPUT /home/tom/ofdm/paper/pics/bufferpassing.png
INPUT /home/tom/ofdm/paper/pics/bufferpassing.png
INPUT /home/tom/ofdm/paper/pics/workerMemory.png
INPUT /home/tom/ofdm/paper/pics/workerMemory.png
INPUT /home/tom/ofdm/paper/pics/workerMemory.png
INPUT /home/tom/ofdm/paper/pics/txWorkerBlock.png
INPUT /home/tom/ofdm/paper/pics/txWorkerBlock.png
INPUT /home/tom/ofdm/paper/pics/txWorkerBlock.png
INPUT /home/tom/ofdm/paper/pics/rxWorkerBlock.png
INPUT /home/tom/ofdm/paper/pics/rxWorkerBlock.png
INPUT /home/tom/ofdm/paper/pics/rxWorkerBlock.png
INPUT /home/tom/ofdm/paper/pics/correlation.png
INPUT /home/tom/ofdm/paper/pics/correlation.png
INPUT /home/tom/ofdm/paper/pics/correlation.png
OUTPUT /home/tom/ofdm/paper/results.aux
INPUT /home/tom/ofdm/paper/results.tex
INPUT /home/tom/ofdm/paper/results.tex
INPUT /home/tom/ofdm/paper/pics/specAn.png
INPUT /home/tom/ofdm/paper/pics/specAn.png
INPUT /home/tom/ofdm/paper/pics/specAn.png
INPUT /home/tom/ofdm/paper/pics/specSetup.png
INPUT /home/tom/ofdm/paper/pics/specSetup.png
INPUT /home/tom/ofdm/paper/pics/specSetup.png
INPUT /home/tom/ofdm/paper/pics/laptopSpec.png
INPUT /home/tom/ofdm/paper/pics/laptopSpec.png
INPUT /home/tom/ofdm/paper/pics/laptopSpec.png
INPUT /home/tom/ofdm/paper/pics/laptopResults.png
INPUT /home/tom/ofdm/paper/pics/laptopResults.png
INPUT /home/tom/ofdm/paper/pics/laptopResults.png
INPUT /home/tom/ofdm/paper/pics/pcSpec.png
INPUT /home/tom/ofdm/paper/pics/pcSpec.png
INPUT /home/tom/ofdm/paper/pics/pcSpec.png
INPUT /home/tom/ofdm/paper/pics/pcResults.png
INPUT /home/tom/ofdm/paper/pics/pcResults.png
INPUT /home/tom/ofdm/paper/pics/pcResults.png
INPUT /home/tom/ofdm/paper/pics/abmPerf.png
INPUT /home/tom/ofdm/paper/pics/abmPerf.png
INPUT /home/tom/ofdm/paper/pics/abmPerf.png
INPUT /home/tom/ofdm/paper/pics/abmPerfArm.png
INPUT /home/tom/ofdm/paper/pics/abmPerfArm.png
INPUT /home/tom/ofdm/paper/pics/abmPerfArm.png
OUTPUT /home/tom/ofdm/paper/conclusions.aux
INPUT /home/tom/ofdm/paper/conclusions.tex
INPUT /home/tom/ofdm/paper/conclusions.tex
INPUT /home/tom/ofdm/paper/main.bbl
INPUT /home/tom/ofdm/paper/main.bbl
INPUT /usr/share/texlive/texmf-dist/fonts/tfm/public/cm/cmtt12.tfm
INPUT /usr/share/texlive/texmf-dist/fonts/tfm/public/cm/cmti12.tfm
OUTPUT /home/tom/ofdm/paper/code.aux
INPUT /home/tom/ofdm/paper/code.tex
INPUT /home/tom/ofdm/paper/code.tex
INPUT /usr/share/texlive/texmf-dist/fonts/tfm/public/cm/cmr10.tfm
INPUT /usr/share/texlive/texmf-dist/fonts/tfm/public/cm/cmtt10.tfm
INPUT /home/tom/ofdm/paper/main.aux
INPUT /home/tom/ofdm/paper/declarationpage.aux
INPUT /home/tom/ofdm/paper/declarationpage.aux
INPUT /home/tom/ofdm/paper/abstractpage.aux
INPUT /home/tom/ofdm/paper/abstractpage.aux
INPUT /home/tom/ofdm/paper/introduction.aux
INPUT /home/tom/ofdm/paper/introduction.aux
INPUT /home/tom/ofdm/paper/background.aux
INPUT /home/tom/ofdm/paper/background.aux
INPUT /home/tom/ofdm/paper/research.aux
INPUT /home/tom/ofdm/paper/research.aux
INPUT /home/tom/ofdm/paper/development.aux
INPUT /home/tom/ofdm/paper/development.aux
INPUT /home/tom/ofdm/paper/results.aux
INPUT /home/tom/ofdm/paper/results.aux
INPUT /home/tom/ofdm/paper/conclusions.aux
INPUT /home/tom/ofdm/paper/conclusions.aux
INPUT /home/tom/ofdm/paper/code.aux
INPUT /home/tom/ofdm/paper/code.aux
INPUT /home/tom/.texlive2019/texmf-var/fonts/pk/ljfour/jknappen/ec/tcrm1200.600pk
INPUT /usr/share/texlive/texmf-dist/fonts/type1/public/amsfonts/cm/cmbx12.pfb
INPUT /usr/share/texlive/texmf-dist/fonts/type1/public/amsfonts/cm/cmex10.pfb
INPUT /usr/share/texlive/texmf-dist/fonts/type1/public/amsfonts/cm/cmmi12.pfb
INPUT /usr/share/texlive/texmf-dist/fonts/type1/public/amsfonts/cm/cmmi8.pfb
INPUT /usr/share/texlive/texmf-dist/fonts/type1/public/amsfonts/cm/cmr12.pfb
INPUT /usr/share/texlive/texmf-dist/fonts/type1/public/amsfonts/cm/cmr8.pfb
INPUT /usr/share/texlive/texmf-dist/fonts/type1/public/amsfonts/cm/cmsy10.pfb
INPUT /usr/share/texlive/texmf-dist/fonts/type1/public/amsfonts/cm/cmti12.pfb
INPUT /usr/share/texlive/texmf-dist/fonts/type1/public/amsfonts/cm/cmtt10.pfb
INPUT /usr/share/texlive/texmf-dist/fonts/type1/public/amsfonts/cm/cmtt12.pfb
