\relax 
\citation{5gtoolbox}
\citation{gnu:main}
\@writefile{toc}{\contentsline {chapter}{\numberline {3}Research}{16}\protected@file@percent }
\@writefile{lof}{\addvspace {10\p@ }}
\@writefile{lot}{\addvspace {10\p@ }}
\@writefile{toc}{\contentsline {section}{\numberline {3.1}Literature Review}{16}\protected@file@percent }
\citation{ieee:1}
\citation{ieee:2}
\citation{ieee:3}
\citation{ieee:4}
\citation{ieee:5}
\citation{ieee:6}
\citation{openwifi}
\citation{gnu:ofdmTest}
\citation{gnu:ofdmTest2}
\citation{wifiImage}
\@writefile{lof}{\contentsline {figure}{\numberline {3.1}{\ignorespaces Diagram of Wi-Fi Subcarriers, courtesy of \cite  {wifiImage}}}{20}\protected@file@percent }
\newlabel{fig:wifiSubcarriers}{{3.1}{20}}
\@writefile{toc}{\contentsline {section}{\numberline {3.2}OFDM}{20}\protected@file@percent }
\@writefile{lof}{\contentsline {figure}{\numberline {3.2}{\ignorespaces QPSK Constellation with Arbitrary Bit Mapping}}{22}\protected@file@percent }
\newlabel{fig:qpskConstellation}{{3.2}{22}}
\@writefile{lof}{\contentsline {figure}{\numberline {3.3}{\ignorespaces Diagram of Cyclic Prefix Insertion}}{24}\protected@file@percent }
\newlabel{fig:cpInsertion}{{3.3}{24}}
\@setckpt{research}{
\setcounter{page}{27}
\setcounter{equation}{0}
\setcounter{enumi}{0}
\setcounter{enumii}{0}
\setcounter{enumiii}{0}
\setcounter{enumiv}{0}
\setcounter{footnote}{0}
\setcounter{mpfootnote}{0}
\setcounter{part}{0}
\setcounter{chapter}{3}
\setcounter{section}{2}
\setcounter{subsection}{0}
\setcounter{subsubsection}{0}
\setcounter{paragraph}{0}
\setcounter{subparagraph}{0}
\setcounter{figure}{3}
\setcounter{table}{0}
\setcounter{parentequation}{0}
\setcounter{lstnumber}{1}
\setcounter{lstlisting}{0}
}
