\relax 
\@writefile{toc}{\contentsline {chapter}{\numberline {5}Results}{48}\protected@file@percent }
\@writefile{lof}{\addvspace {10\p@ }}
\@writefile{lot}{\addvspace {10\p@ }}
\@writefile{toc}{\contentsline {section}{\numberline {5.1}Signal Analysis}{48}\protected@file@percent }
\@writefile{lof}{\contentsline {figure}{\numberline {5.1}{\ignorespaces Spectrum Analyzer Capture}}{49}\protected@file@percent }
\newlabel{fig:specAn}{{5.1}{49}}
\@writefile{toc}{\contentsline {section}{\numberline {5.2}CP-OFDM PHY Performance}{49}\protected@file@percent }
\@writefile{toc}{\contentsline {subsection}{\numberline {5.2.1}Introduction}{49}\protected@file@percent }
\@writefile{lof}{\contentsline {figure}{\numberline {5.2}{\ignorespaces Spectrum Analyzer Capture Setup}}{50}\protected@file@percent }
\newlabel{fig:specSetup}{{5.2}{50}}
\@writefile{toc}{\contentsline {subsection}{\numberline {5.2.2}Laptop Performance}{50}\protected@file@percent }
\@writefile{lof}{\contentsline {figure}{\numberline {5.3}{\ignorespaces Laptop Specs}}{50}\protected@file@percent }
\newlabel{fig:laptopSpec}{{5.3}{50}}
\@writefile{lof}{\contentsline {figure}{\numberline {5.4}{\ignorespaces CP-OFDM PHY Laptop Results}}{51}\protected@file@percent }
\newlabel{fig:laptopResults}{{5.4}{51}}
\@writefile{toc}{\contentsline {subsection}{\numberline {5.2.3}Custom PC Performance}{52}\protected@file@percent }
\@writefile{lof}{\contentsline {figure}{\numberline {5.5}{\ignorespaces Custom PC Specs}}{52}\protected@file@percent }
\newlabel{fig:pcSpec}{{5.5}{52}}
\@writefile{lof}{\contentsline {figure}{\numberline {5.6}{\ignorespaces CP-OFDM PHY Custom PC Results}}{53}\protected@file@percent }
\newlabel{fig:pcResults}{{5.6}{53}}
\@writefile{toc}{\contentsline {section}{\numberline {5.3}CP-OFDM Frame Detection}{54}\protected@file@percent }
\@writefile{toc}{\contentsline {section}{\numberline {5.4}Asynchronous Buffer Manager}{56}\protected@file@percent }
\@writefile{toc}{\contentsline {subsection}{\numberline {5.4.1}Introduction}{56}\protected@file@percent }
\@writefile{toc}{\contentsline {subsection}{\numberline {5.4.2}Expectations}{57}\protected@file@percent }
\@writefile{toc}{\contentsline {subsection}{\numberline {5.4.3}Performance}{58}\protected@file@percent }
\@writefile{lof}{\contentsline {figure}{\numberline {5.7}{\ignorespaces ABM vs Serial Manager Performance Difference}}{60}\protected@file@percent }
\newlabel{fig:abmPerf}{{5.7}{60}}
\@writefile{lof}{\contentsline {figure}{\numberline {5.8}{\ignorespaces ABM vs Serial Manager Performance Difference, ARM big.LITTLE Simulation}}{61}\protected@file@percent }
\newlabel{fig:abmPerfArm}{{5.8}{61}}
\@setckpt{results}{
\setcounter{page}{63}
\setcounter{equation}{0}
\setcounter{enumi}{0}
\setcounter{enumii}{0}
\setcounter{enumiii}{0}
\setcounter{enumiv}{0}
\setcounter{footnote}{0}
\setcounter{mpfootnote}{0}
\setcounter{part}{0}
\setcounter{chapter}{5}
\setcounter{section}{4}
\setcounter{subsection}{3}
\setcounter{subsubsection}{0}
\setcounter{paragraph}{0}
\setcounter{subparagraph}{0}
\setcounter{figure}{8}
\setcounter{table}{0}
\setcounter{parentequation}{0}
\setcounter{lstnumber}{1}
\setcounter{lstlisting}{0}
}
